SistemadeIrrigacao/simulation/qsim/SistemaDeIrrigacao.msim.vcd
$comment
	File created using the following command:
		vcd file SistemaDeIrrigacao.msim.vcd -direction
$end
$date
	Tue Jul 16 00:09:43 2024
$end
$version
	ModelSim Version 2020.1
$end
$timescale
	1ps
$end

$scope module contador_de_segundos_vlg_vec_tst $end
$var reg 1 ! clk $end
$var reg 4 " dez_segundos_in [3:0] $end
$var reg 1 # load $end
$var reg 1 $ reset $end
$var reg 4 % uni_segundos_in [3:0] $end
$var wire 1 & dez_segundos [3] $end
$var wire 1 ' dez_segundos [2] $end
$var wire 1 ( dez_segundos [1] $end
$var wire 1 ) dez_segundos [0] $end
$var wire 1 * timeout $end
$var wire 1 + uni_segundos [3] $end
$var wire 1 , uni_segundos [2] $end
$var wire 1 - uni_segundos [1] $end
$var wire 1 . uni_segundos [0] $end

$scope module i1 $end
$var wire 1 / gnd $end
$var wire 1 0 vcc $end
$var wire 1 1 unknown $end
$var tri1 1 2 devclrn $end
$var tri1 1 3 devpor $end
$var tri1 1 4 devoe $end
$var wire 1 5 clk~combout $end
$var wire 1 6 reset~combout $end
$var wire 1 7 contador_unidade|load~regout $end
$var wire 1 8 contador_unidade|Add0~0_combout $end
$var wire 1 9 contador_unidade|Add0~1_combout $end
$var wire 1 : contador_unidade|Equal0~1_combout $end
$var wire 1 ; contador_unidade|Equal0~0_combout $end
$var wire 1 < contador_unidade|carry~regout $end
$var wire 1 = contador_dezena|load~regout $end
$var wire 1 > contador_dezena|Add0~0_combout $end
$var wire 1 ? contador_dezena|Add0~1_combout $end
$var wire 1 @ contador_dezena|Equal0~1_combout $end
$var wire 1 A contador_dezena|Equal0~0_combout $end
$var wire 1 B contador_dezena|carry~regout $end
$var wire 1 C timeout~0_combout $end
$var wire 1 D uni_segundos_in~combout [3] $end
$var wire 1 E uni_segundos_in~combout [2] $end
$var wire 1 F uni_segundos_in~combout [1] $end
$var wire 1 G uni_segundos_in~combout [0] $end
$var wire 1 H contador_unidade|count [3] $end
$var wire 1 I contador_unidade|count [2] $end
$var wire 1 J contador_unidade|count [1] $end
$var wire 1 K contador_unidade|count [0] $end
$var wire 1 L contador_dezena|count [3] $end
$var wire 1 M contador_dezena|count [2] $end
$var wire 1 N contador_dezena|count [1] $end
$var wire 1 O contador_dezena|count [0] $end
$var wire 1 P dez_segundos_in~combout [3] $end
$var wire 1 Q dez_segundos_in~combout [2] $end
$var wire 1 R dez_segundos_in~combout [1] $end
$var wire 1 S dez_segundos_in~combout [0] $end
$upscope $end
$upscope $end
$enddefinitions $end
#0
$dumpvars
0!
b101 "
x#
0$
b0 %
1)
0(
0'
1&
0*
1.
0-
0,
1+
0/
10
x1
12
13
14
05
06
07
18
19
0:
0;
0<
0=
1>
1?
0@
0A
0B
0C
0G
0F
0E
0D
0K
0J
0I
0H
0O
0N
0M
0L
1S
0R
1Q
0P
$end
#500
1!
15
1H
1K
17
1;
1:
09
08
0.
0+
#1000
0!
05
#1500
1!
15
1<
0H
0K
0;
0:
19
18
1.
1+
1L
1M
1=
0?
1'
0&
#2000
0!
05
#2500
1!
15
0<
1K
1:
09
08
0.
#3000
0!
05
#3500
1!
15
1H
1I
1J
0K
0:
1,
1-
1.
0+
#4000
0!
05
#4500
1!
15
1K
18
0.
#5000
0!
05
#5500
1!
15
0J
0K
0-
1.
#6000
0!
05
#6500
1!
15
1K
19
08
0.
#7000
0!
05
#7500
1!
15
0I
1J
0K
0,
1-
1.
#8000
0!
05
#8500
1!
15
1K
18
0.
#9000
0!
05
#9500
1!
15
0J
0K
0-
1.
#10000
0!
05
#10500
1!
15
1K
1;
1:
09
08
0.
#11000
0!
05
#11500
1!
15
1<
0H
0K
0;
0:
19
18
1.
1+
1O
1?
0>
0)
#12000
0!
05
#12500
1!
15
0<
1K
1:
09
08
0.
#13000
0!
05
#13500
1!
15
1H
1I
1J
0K
0:
1,
1-
1.
0+
#14000
0!
05
#14500
1!
15
1K
18
0.
#15000
0!
05
#15500
1!
15
0J
0K
0-
1.
#16000
0!
05
#16500
1!
15
1K
19
08
0.
#17000
0!
05
#17500
1!
15
0I
1J
0K
0,
1-
1.
#18000
0!
05
#18500
1!
15
1K
18
0.
#19000
0!
05
#19500
1!
15
0J
0K
0-
1.
#20000
0!
05
#20500
1!
15
1K
1;
1:
09
08
0.
#21000
0!
05
#21500
1!
15
1<
0H
0K
0;
0:
19
18
1.
1+
0M
1N
0O
0'
1(
1)
#22000
0!
05
#22500
1!
15
0<
1K
1:
09
08
0.
#23000
0!
05
#23500
1!
15
1H
1I
1J
0K
0:
1,
1-
1.
0+
#24000
0!
05
#24500
1!
15
1K
18
0.
#25000
0!
05
#25500
1!
15
0J
0K
0-
1.
#26000
0!
05
#26500
1!
15
1K
19
08
0.
#27000
0!
05
#27500
1!
15
0I
1J
0K
0,
1-
1.
#28000
0!
05
#28500
1!
15
1K
18
0.
#29000
0!
05
#29500
1!
15
0J
0K
0-
1.
#30000
0!
05
#30500
1!
15
1K
1;
1:
09
08
0.
#31000
0!
05
#31500
1!
15
1<
0H
0K
0;
0:
19
18
1.
1+
1O
1>
0)
#32000
0!
05
#32500
1!
15
0<
1K
1:
09
08
0.
#33000
0!
05
#33500
1!
15
1H
1I
1J
0K
0:
1,
1-
1.
0+
#34000
0!
05
#34500
1!
15
1K
18
0.
#35000
0!
05
#35500
1!
15
0J
0K
0-
1.
#36000
0!
05
#36500
1!
15
1K
19
08
0.
#37000
0!
05
#37500
1!
15
0I
1J
0K
0,
1-
1.
#38000
0!
05
#38500
1!
15
1K
18
0.
#39000
0!
05
#39500
1!
15
0J
0K
0-
1.
#40000
0!
05
#40500
1!
15
1K
1;
1:
09
08
0.
#41000
0!
05
#41500
1!
15
1<
0H
0K
0;
0:
19
18
1.
1+
0N
0O
0(
1)
#42000
0!
05
#42500
1!
15
0<
1K
1:
09
08
0.
#43000
0!
05
#43500
1!
15
1H
1I
1J
0K
0:
1,
1-
1.
0+
#44000
0!
05
#44500
1!
15
1K
18
0.
#45000
0!
05
#45500
1!
15
0J
0K
0-
1.
#46000
0!
05
#46500
1!
15
1K
19
08
0.
#47000
0!
05
#47500
1!
15
0I
1J
0K
0,
1-
1.
#48000
0!
05
#48500
1!
15
1K
18
0.
#49000
0!
05
#49500
1!
15
0J
0K
0-
1.
#50000
0!
05
#50500
1!
15
1K
1;
1:
09
08
0.
#51000
0!
05
#51500
1!
15
1<
0H
0K
0;
0:
19
18
1.
1+
1O
1A
1@
0?
0>
0)
#52000
0!
05
#52500
1!
15
0<
1K
1:
09
08
0.
#53000
0!
05
#53500
1!
15
1H
1I
1J
0K
0:
1,
1-
1.
0+
#54000
0!
05
#54500
1!
15
1K
18
0.
#55000
0!
05
#55500
1!
15
0J
0K
0-
1.
#56000
0!
05
#56500
1!
15
1K
19
08
0.
#57000
0!
05
#57500
1!
15
0I
1J
0K
0,
1-
1.
#58000
0!
05
#58500
1!
15
1K
18
0.
#59000
0!
05
#59500
1!
15
0J
0K
0-
1.
#60000
0!
05
#60500
1!
15
1K
1;
1:
09
08
0.
#61000
0!
05
#61500
1!
15
1<
0H
0K
0;
0:
19
18
1.
1+
1B
0L
0O
1C
0A
0@
1?
1>
1)
1&
1*
#62000
0!
05
#62500
1!
15
0<
1K
0C
1:
09
08
0.
0*
#63000
0!
05
#63500
1!
15
1H
1I
1J
0K
0:
1,
1-
1.
0+
#64000
0!
05
#64500
1!
15
1K
18
0.
#65000
0!
05
#65500
1!
15
0J
0K
0-
1.
#66000
0!
05
#66500
1!
15
1K
19
08
0.
#67000
0!
05
#67500
1!
15
0I
1J
0K
0,
1-
1.
#68000
0!
05
#68500
1!
15
1K
18
0.
#69000
0!
05
#69500
1!
15
0J
0K
0-
1.
#70000
0!
05
#70500
1!
15
1K
1;
1:
09
08
0.
#71000
0!
05
#71500
1!
15
1<
0H
0K
1C
0;
0:
19
18
1.
1+
1*
0B
1O
0C
1@
0?
0>
0)
0*
#72000
0!
05
#72500
1!
15
0<
1K
1:
09
08
0.
#73000
0!
05
#73500
1!
15
1H
1I
1J
0K
0:
1,
1-
1.
0+
#74000
0!
05
#74500
1!
15
1K
18
0.
#75000
0!
05
#75500
1!
15
0J
0K
0-
1.
#76000
0!
05
#76500
1!
15
1K
19
08
0.
#77000
0!
05
#77500
1!
15
0I
1J
0K
0,
1-
1.
#78000
0!
05
#78500
1!
15
1K
18
0.
#79000
0!
05
#79500
1!
15
0J
0K
0-
1.
#80000
0!
05
#80500
1!
15
1K
1;
1:
09
08
0.
#81000
0!
05
#81500
1!
15
1<
0H
0K
0;
0:
19
18
1.
1+
1L
1M
1N
0O
0@
1'
1(
1)
0&
#82000
0!
05
#82500
1!
15
0<
1K
1:
09
08
0.
#83000
0!
05
#83500
1!
15
1H
1I
1J
0K
0:
1,
1-
1.
0+
#84000
0!
05
#84500
1!
15
1K
18
0.
#85000
0!
05
#85500
1!
15
0J
0K
0-
1.
#86000
0!
05
#86500
1!
15
1K
19
08
0.
#87000
0!
05
#87500
1!
15
0I
1J
0K
0,
1-
1.
#88000
0!
05
#88500
1!
15
1K
18
0.
#89000
0!
05
#89500
1!
15
0J
0K
0-
1.
#90000
0!
05
#90500
1!
15
1K
1;
1:
09
08
0.
#91000
0!
05
#91500
1!
15
1<
0H
0K
0;
0:
19
18
1.
1+
1O
1>
0)
#92000
0!
05
#92500
1!
15
0<
1K
1:
09
08
0.
#93000
0!
05
#93500
1!
15
1H
1I
1J
0K
0:
1,
1-
1.
0+
#94000
0!
05
#94500
1!
15
1K
18
0.
#95000
0!
05
#95500
1!
15
0J
0K
0-
1.
#96000
0!
05
#96500
1!
15
1K
19
08
0.
#97000
0!
05
#97500
1!
15
0I
1J
0K
0,
1-
1.
#98000
0!
05
#98500
1!
15
1K
18
0.
#99000
0!
05
#99500
1!
15
0J
0K
0-
1.
